%YAML 1.1
%TAG !u! tag:unity3d.com,2011:
--- !u!114 &11400000
MonoBehaviour:
  m_ObjectHideFlags: 0
  m_CorrespondingSourceObject: {fileID: 0}
  m_PrefabInstance: {fileID: 0}
  m_PrefabAsset: {fileID: 0}
  m_GameObject: {fileID: 0}
  m_Enabled: 1
  m_EditorHideFlags: 0
  m_Script: {fileID: 11500000, guid: 95e66c6366d904e98bc83428217d4fd7, type: 3}
  m_Name: HelloWord_VS
  m_EditorClassIdentifier: 
  _data:
    _json: '{"graph":{"variables":{"Kind":"Flow","collection":{"$content":[],"$version":"A"},"$version":"A"},"controlInputDefinitions":[],"controlOutputDefinitions":[],"valueInputDefinitions":[],"valueOutputDefinitions":[],"title":null,"summary":null,"pan":{"x":-5.888249,"y":26.31207},"zoom":0.55,"elements":[{"coroutine":false,"defaultValues":{},"position":{"x":-505.0,"y":-59.0},"guid":"35b59f3a-9a65-4742-b283-ec2c89edf28e","$version":"A","$type":"Unity.VisualScripting.Update"},{"chainable":false,"member":{"name":"print","parameterTypes":["System.Object"],"targetType":"UnityEngine.MonoBehaviour","targetTypeName":"UnityEngine.MonoBehaviour","$version":"A"},"defaultValues":{},"position":{"x":251.0,"y":-48.0},"guid":"60ec01bd-9845-4634-a401-e7903a098cfc","$version":"A","$type":"Unity.VisualScripting.InvokeMember","$id":"11"},{"type":"System.String","value":{"$content":"Hello
      World","$type":"System.String"},"defaultValues":{},"position":{"x":-317.0,"y":23.0},"guid":"78199ffa-11d4-435b-804f-2f6ce0092b9a","$version":"A","$type":"Unity.VisualScripting.Literal","$id":"14"},{"coroutine":false,"defaultValues":{},"position":{"x":-308.0,"y":-91.0},"guid":"c287a2cf-60fa-44d8-9ce2-1b81a155efae","$version":"A","$type":"Unity.VisualScripting.Start","$id":"16"},{"sourceUnit":{"$ref":"16"},"sourceKey":"trigger","destinationUnit":{"$ref":"11"},"destinationKey":"enter","guid":"94d9ee5c-13bd-4d6d-a696-3d8b48d9dc19","$type":"Unity.VisualScripting.ControlConnection"},{"sourceUnit":{"$ref":"14"},"sourceKey":"output","destinationUnit":{"$ref":"11"},"destinationKey":"%message","guid":"935cd36f-ad9d-4e94-a92a-c1ed3215bdf4","$type":"Unity.VisualScripting.ValueConnection"}],"$version":"A"}}'
    _objectReferences: []
